//id	name	red_effect	blue_effect	green_effect	yellow_effect	red_blue_effect	red_green_effect	red_yellow_effect	blue_green_effect	blue_yellow_effect	green_yellow_effect	red_blue_green_effect	red_blue_yellow_effect	red_green_yellow_effect	blue_green_yellow_effect	height	width	length	size_increment
4	Serpentine Sword	3	9	0	12	26	0	25	0	24	0	0	27	0	0	0.6	1	1	0.7
5	Dazzling Sword	3	9	0	12	26	0	25	0	24	0	0	27	0	0	0.6	1	1	0.7
6	Wyrm Sword	3	9	0	12	26	0	25	0	24	0	0	27	0	0	0.6	1	1	0.7
7	Sacro Sword	3	9	0	12	26	0	25	0	24	0	0	27	0	0	0.7	1.1	1	0.7
15	Criss Sword	2	8	0	11	22	0	21	0	20	0	0	23	0	0	0.6	1	1	0.7
16	Paladin Sword	2	8	0	11	22	0	21	0	20	0	0	23	0	0	0.6	1	1	0.7
17	Bone Sword	2	8	0	11	22	0	21	0	20	0	0	23	0	0	0.6	1	1	0.7
18	Thunder Blade	2	8	0	11	22	0	21	0	20	0	0	23	0	0	0.6	1	1	0.7
19	Onyx Sword	2	8	0	11	22	0	21	0	20	0	0	23	0	0	0.6	1	1	0.7
20	Rebel Sword	2	8	0	11	22	0	21	0	20	0	0	23	0	0	0.6	1	1	0.7
21	Charging Sword	2	8	0	11	22	0	21	0	20	0	0	23	0	0	0.6	1	1	0.7
22	Crescent Sword	3	9	0	12	26	0	25	0	24	0	0	27	0	0	0.6	1	1	0.7
23	Delusion Sword	3	9	0	12	26	0	25	0	24	0	0	27	0	0	0.6	1	1	0.7
40	Exquisite Rifle	5	14	0	15	34	0	33	0	32	0	0	35	0	0	0.6	1	1	0.7
42	Venom Gun	5	14	0	15	34	0	33	0	32	0	0	35	0	0	0.6	1	1	0.7
43	Firegun of Sol	5	14	0	15	34	0	33	0	32	0	0	35	0	0	0.6	1	1	0.7
44	Token Pistol	5	14	0	15	34	0	33	0	32	0	0	35	0	0	0.6	1	1	0.7
45	Gattling Firegun	5	14	0	15	34	0	33	0	32	0	0	35	0	0	0.6	1	1	0.7
76	Moon Kris	4	10	0	13	30	0	29	0	28	0	0	31	0	0	0.6	1	1	0.7
83	Crystalline Kris	4	10	0	13	30	0	29	0	28	0	0	31	0	0	0.6	1	1	0.7
84	Vampiric Kris	4	10	0	13	30	0	29	0	28	0	0	31	0	0	0.6	1	1	0.7
100	Grace Wand	7	6	0	1	18	0	17	0	16	0	0	19	0	0	0.6	1	1	0.7
101	Beastly Wand	7	6	0	1	18	0	17	0	16	0	0	19	0	0	0.6	1	1	0.7
102	Thundorian Staff	7	6	0	1	18	0	17	0	16	0	0	19	0	0	0.6	1	1	0.7
103	Staff of Life	7	6	0	1	18	0	17	0	16	0	0	19	0	0	0.6	1	1	0.7
107	Battle Stave	7	6	0	1	18	0	17	0	16	0	0	19	0	0	0.6	1	1	0.7
108	Lotus Staff	7	6	0	1	18	0	17	0	16	0	0	19	0	0	0.6	1	1	0.7
109	Staff of Wonders	7	6	0	1	18	0	17	0	16	0	0	19	0	0	0.6	1	1	0.7
110	Revered Staff	7	6	0	1	18	0	17	0	16	0	0	19	0	0	0.6	1	1	0.7
111	Demon Bane Rod	7	6	0	1	18	0	17	0	16	0	0	19	0	0	0.6	1	1	0.7
112	Crimson Rod	7	6	0	1	18	0	17	0	16	0	0	19	0	0	0.6	1	1	0.7
113	Draco	3	9	0	12	26	0	25	0	24	0	0	27	0	0	0.6	1	1	0.7
114	Drakan	3	9	0	12	26	0	25	0	24	0	0	27	0	0	0.6	1	1	0.7
115	Crag	2	8	0	11	22	0	21	0	20	0	0	23	0	0	0.6	1	1	0.7
116	Colossus	2	8	0	11	22	0	21	0	20	0	0	23	0	0	0.6	1	1	0.7
150	Visceral	4	10	0	13	30	0	29	0	28	0	0	31	0	0	0.6	1	1	0.5
151	Riven Soul	4	10	0	13	30	0	29	0	28	0	0	31	0	0	0.6	1	1	0.6
771	Greatsword of Incantation	2	8	0	11	22	0	21	0	20	0	0	23	0	0	0.6	1	1	0.7
772	Roar of Evanescence	2	8	0	11	22	0	21	0	20	0	0	23	0	0	0.6	1	1	0.7
773	Judgment of Enigma	2	8	0	11	22	0	21	0	20	0	0	23	0	0	0.6	1	1	0.7
774	Blade of Incantation	3	9	0	12	26	0	25	0	24	0	0	27	0	0	0.6	1	1	0.7
775	Dance of Evanescence	3	9	0	12	26	0	25	0	24	0	0	27	0	0	0.6	1	1	0.7
776	Blade of Enigma	3	9	0	12	26	0	25	0	24	0	0	27	0	0	0.8	1.2	1	0.7
782	Kiss of the Cursed	5	14	0	15	34	0	33	0	32	0	0	35	0	0	0.6	1	1	0.7
783	Bellow of Evanescence	5	14	0	15	34	0	33	0	32	0	0	35	0	0	0.6	1	1	0.7
784	Rifle of Enigma	5	14	0	15	34	0	33	0	32	0	0	35	0	0	0.6	1	1	0.7
786	Staff of Incantation	7	6	0	1	18	0	17	0	16	0	0	19	0	0	0.6	1	1	0.7
787	Staff of Evanescence	7	6	0	1	18	0	17	0	16	0	0	19	0	0	0.6	1	1	0.7
788	Staff of Enigma	7	6	0	1	18	0	17	0	16	0	0	19	0	0	0.6	1	1	0.7
793	Staff of Abraxas	7	6	0	1	18	0	17	0	16	0	0	19	0	0	0.6	1	1	0.7
794	Staff of Mirage	7	6	0	1	18	0	17	0	16	0	0	19	0	0	0.6	1	1	0.7
795	Staff of the Sphinx	7	6	0	1	18	0	17	0	16	0	0	19	0	0	0.6	1	1	0.7
800	Tooth of the Cursed	4	10	0	13	30	0	29	0	28	0	0	31	0	0	0.6	1	1	0.7
801	Tooth of Evanescence	4	10	0	13	30	0	29	0	28	0	0	31	0	0	0.6	1	1	0.7
802	Kris of the Sphinx	4	10	0	13	30	0	29	0	28	0	0	31	0	0	0.6	1	1	0.7
1372	Righteous Sword	2	8	0	11	22	0	21	0	20	0	0	23	0	0	0.6	1	1	0.7
1373	Cavalier Saber	2	8	0	11	22	0	21	0	20	0	0	23	0	0	0.6	1	1	0.7
1374	Grey Sword of Darkan	2	8	0	11	22	0	21	0	20	0	0	23	0	0	0.6	1	1	0.7
1376	Vampiric Bat King	2	8	0	11	22	0	21	0	20	0	0	23	0	0	0.6	1.1	1	0.7
1377	Common Rebel Sword	2	8	0	11	22	0	21	0	20	0	0	23	0	0	0.6	1	1	0.7
1378	Fiery Sword of Darkan	2	8	0	11	22	0	21	0	20	0	0	23	0	0	0.6	1	1	0.7
1381	Protector Sword	2	8	0	11	22	0	21	0	20	0	0	23	0	0	0.6	1	1	0.7
1382	Invader Sword	2	8	0	11	22	0	21	0	20	0	0	23	0	0	0.6	1	1	0.7
1383	Soul Sword of Darkan	2	8	0	11	22	0	21	0	20	0	0	23	0	0	0.6	1	1	0.7
1385	Wings of Death	2	8	0	11	22	0	21	0	20	0	0	23	0	0	0.6	1.1	1	0.7
1386	Enhanced Rebel Sword	2	8	0	11	22	0	21	0	20	0	0	23	0	0	0.6	1	1	0.7
1387	Rustle Sword	2	8	0	11	22	0	21	0	20	0	0	23	0	0	0.6	1	1	0.7
1391	Emerald Blade	3	9	0	12	26	0	25	0	24	0	0	27	0	0	0.6	1	1	0.7
1392	Steel Saber	3	9	0	12	26	0	25	0	24	0	0	27	0	0	0.6	1	1	0.7
1393	Hymn Sword of Darkan	3	9	0	12	26	0	25	0	24	0	0	27	0	0	0.6	1	1	0.7
1394	Sword of Dawn	3	9	0	12	26	0	25	0	24	0	0	27	0	0	0.6	1	1	0.7
1398	Tribal Sword	3	9	0	12	26	0	25	0	24	0	0	27	0	0	0.6	1	1	0.7
1399	Amber Sword	3	9	0	12	26	0	25	0	24	0	0	27	0	0	0.6	1	1	0.7
1408	Pocket Pistol	5	14	0	15	34	0	33	0	32	0	0	35	0	0	0.6	1	1	0.7
1409	Battle Rifle	5	14	0	15	34	0	33	0	32	0	0	35	0	0	0.6	1	1	0.7
1410	Holy Judgment	5	14	0	15	34	0	33	0	32	0	0	35	0	0	0.6	1	1	0.7
1411	Kiss of the Serpent	5	14	0	15	34	0	33	0	32	0	0	35	0	0	0.6	1	1	0.7
1412	Lightning Taser	5	14	0	15	34	0	33	0	32	0	0	35	0	0	0.6	1	1	0.7
1413	Steel Pistol	5	14	0	15	34	0	33	0	32	0	0	35	0	0	0.6	1	1	0.7
1414	Spectar Firegun	5	14	0	15	34	0	33	0	32	0	0	35	0	0	0.6	1	1	0.7
1418	Comet Spike	4	10	0	13	30	0	29	0	28	0	0	31	0	0	0.6	1	1	0.7
1419	Blade of Torment	4	10	0	13	30	0	29	0	28	0	0	31	0	0	0.6	1	1	0.7
1420	Venom Soul Spike	4	10	0	13	30	0	29	0	28	0	0	31	0	0	0.6	1	1	0.7
1421	Tooth of Fury	4	10	0	13	30	0	29	0	28	0	0	31	0	0	0.6	1	1	0.7
1425	Quartz Dagger	4	10	0	13	30	0	29	0	28	0	0	31	0	0	0.6	1	1	0.7
1426	Nightmare Dagger	4	10	0	13	30	0	29	0	28	0	0	31	0	0	0.6	1	1	0.7
1430	Wand of Holiness	7	6	0	1	18	0	17	0	16	0	0	19	0	0	0.6	1	1	0.7
1431	Feral Wand	7	6	0	1	18	0	17	0	16	0	0	19	0	0	0.6	1	1	0.7
1432	Staff of Thunderbolt	7	6	0	1	18	0	17	0	16	0	0	19	0	0	0.6	1	1	0.7
1433	Hearten Wand	7	6	0	1	18	0	17	0	16	0	0	19	0	0	0.6	1	1	0.7
1437	Restraining Staff	7	6	0	1	18	0	17	0	16	0	0	19	0	0	0.6	1	1	0.7
1438	Fury Staff	7	6	0	1	18	0	17	0	16	0	0	19	0	0	0.6	1	1	0.7
1439	Staff of Wrath	7	6	0	1	18	0	17	0	16	0	0	19	0	0	0.6	1	1	0.7
1440	Elegant Staff	7	6	0	1	18	0	17	0	16	0	0	19	0	0	0.6	1	1	0.7
1441	Staff of Gaia	7	6	0	1	18	0	17	0	16	0	0	19	0	0	0.6	1	1	0.7
1442	Tears of Angel	7	6	0	1	18	0	17	0	16	0	0	19	0	0	0.6	1	1	0.7
1446	Spike of Feint	4	10	0	13	30	0	29	0	28	0	0	31	0	0	0.6	1	1	0.7
1447	Pirate Dagger	4	10	0	13	30	0	29	0	28	0	0	31	0	0	0.6	1	1	0.7
1448	Sovereign Kris	4	10	0	13	30	0	29	0	28	0	0	31	0	0	0.6	1	1	0.7
1449	Clarity Dagger	4	10	0	13	30	0	29	0	28	0	0	31	0	0	0.6	1	1	0.7
1460	Gemmed Dagger	4	10	0	13	30	0	29	0	28	0	0	31	0	0	0.6	1	1	0.7
1461	Cursed Dagger	4	10	0	13	30	0	29	0	28	0	0	31	0	0	0.6	1	1	0.7
1465	Brilliance Wand	7	6	0	1	18	0	17	0	16	0	0	19	0	0	0.6	1	1	0.7
1466	Wand of Vigor	7	6	0	1	18	0	17	0	16	0	0	19	0	0	0.6	1	1	0.7
1467	Protector Staff	7	6	0	1	18	0	17	0	16	0	0	19	0	0	0.6	1	1	0.7
1468	Staff of High Priest	7	6	0	1	18	0	17	0	16	0	0	19	0	0	0.6	1	1	0.7
1472	Staff of Endeavor	7	6	0	1	18	0	17	0	16	0	0	19	0	0	0.6	1	1	0.7
1473	Staff of Flame	7	6	0	1	18	0	17	0	16	0	0	19	0	0	0.6	1	1	0.7
1474	Staff of Sun	7	6	0	1	18	0	17	0	16	0	0	19	0	0	0.6	1	1	0.7
1475	Spiritual Staff	7	6	0	1	18	0	17	0	16	0	0	19	0	0	0.6	1	1	0.7
1476	Staff of Binding	7	6	0	1	18	0	17	0	16	0	0	19	0	0	0.6	1	1	0.7
1477	Eye of Sorrow	7	6	0	1	18	0	17	0	16	0	0	19	0	0	0.6	1	1	0.7
1892	Earth Sealed Greatsword of Incantation	2	8	0	11	22	0	21	0	20	0	0	23	0	0	0.6	1	1	0.7
1893	Fire Sealed Roar of Evanescence	2	8	0	11	22	0	21	0	20	0	0	23	0	0	0.6	1	1	0.7
1894	Ice Sealed Judgment of Enigma	2	8	0	11	22	0	21	0	20	0	0	23	0	0	0.6	1	1	0.7
1895	Earth Sealed Blade of Incantation	3	9	0	12	26	0	25	0	24	0	0	27	0	0	0.6	1	1	0.7
1896	Fire Sealed Dance of Evanescence	3	9	0	12	26	0	25	0	24	0	0	27	0	0	0.6	1	1	0.7
1897	Ice Sealed Blade of Enigma	3	9	0	12	26	0	25	0	24	0	0	27	0	0	0.6	1	1	0.7
1903	Earth Sealed Kiss of the Cursed	5	14	0	15	34	0	33	0	32	0	0	35	0	0	0.6	1	1	0.7
1904	Fire Sealed Bellow of Evanescence	5	14	0	15	34	0	33	0	32	0	0	35	0	0	0.6	1	1	0.7
1905	Ice Sealed Rifle of Enigma	5	14	0	15	34	0	33	0	32	0	0	35	0	0	0.6	1	1	0.7
1907	Earth Sealed Staff of Incantation	7	6	0	1	18	0	17	0	16	0	0	19	0	0	0.6	1	1	0.7
1908	Fire Sealed Staff of Evanescence	7	6	0	1	18	0	17	0	16	0	0	19	0	0	0.6	1	1	0.7
1909	Ice Sealed Staff of Enigma	7	6	0	1	18	0	17	0	16	0	0	19	0	0	0.6	1	1	0.7
1914	Earth Sealed Staff of Abraxas	7	6	0	1	18	0	17	0	16	0	0	19	0	0	0.6	1	1	0.7
1915	Fire Sealed Staff of Mirage	7	6	0	1	18	0	17	0	16	0	0	19	0	0	0.6	1	1	0.7
1916	Ice Sealed Staff of the Sphinx	7	6	0	1	18	0	17	0	16	0	0	19	0	0	0.6	1	1	0.7
1921	Earth Sealed Tooth of the Cursed	4	10	0	13	30	0	29	0	28	0	0	31	0	0	0.6	1	1	0.7
1922	Fire Sealed Tooth of Evanescence	4	10	0	13	30	0	29	0	28	0	0	31	0	0	0.6	1	1	0.7
1923	Ice Sealed Kris of the Sphinx	4	10	0	13	30	0	29	0	28	0	0	31	0	0	0.6	1	1	0.7
2376	Hyena Dagger	4	10	0	13	30	0	29	0	28	0	0	31	0	0	0.6	1	1	0.7
2377	Dagger of Hydra	4	10	0	13	30	0	29	0	28	0	0	31	0	0	0.6	1	1	0.7
2378	Trident of Poseidon	4	10	0	13	30	0	29	0	28	0	0	31	0	0	0.6	1	1	0.7
3799	Sword of the Tempest	3	9	0	12	26	0	25	0	24	0	0	27	0	0	0.6	1	1	0.7
3800	Spike of Sistine	3	9	0	12	26	0	25	0	24	0	0	27	0	0	0.6	1	1	0.7
3801	Sword of the Kylin	3	9	0	12	26	0	25	0	24	0	0	27	0	0	0.6	1	1	0.7
3802	Sword of Glowing Flame	2	8	0	11	22	0	21	0	20	0	0	23	0	0	0.6	1	1	0.7
3803	Roar of Gallon	2	8	0	11	22	0	21	0	20	0	0	23	0	0	0.6	1	1	0.7
3804	Greatsword of the Tortoise	2	8	0	11	22	0	21	0	20	0	0	23	0	0	0.6	1	1	0.7
3806	Flaming Pistol	5	14	0	15	34	0	33	0	32	0	0	35	0	0	0.6	1	1	0.7
3807	Rifle of Darwin	5	14	0	15	34	0	33	0	32	0	0	35	0	0	0.6	1	1	0.7
3808	Rifle of the White Tiger	5	14	0	15	34	0	33	0	32	0	0	35	0	0	0.6	1	1	0.7
3810	Seal of Frozen Crescent	7	6	0	1	18	0	17	0	16	0	0	19	0	0	0.6	1	1	0.7
3811	Staff of Udine	7	6	0	1	18	0	17	0	16	0	0	19	0	0	0.6	1	1	0.7
3812	Staff of the Peacock	7	6	0	1	18	0	17	0	16	0	0	19	0	0	0.6	1	1	0.7
3813	Glory Sigil	7	6	0	1	18	0	17	0	16	0	0	19	0	0	0.6	1	1	0.7
3814	Staff of Hope	7	6	0	1	18	0	17	0	16	0	0	19	0	0	0.6	1	1	0.7
3815	Staff of the Phoenix	7	6	0	1	18	0	17	0	16	0	0	19	0	0	0.6	1	1	0.7
3817	Blade of the Tempest	4	10	0	13	30	0	29	0	28	0	0	31	0	0	0.6	1	1	0.7
3818	Spike of Forlorn	4	10	0	13	30	0	29	0	28	0	0	31	0	0	0.6	1	1	0.7
3819	Blade of the Green Dragon	4	10	0	13	30	0	29	0	28	0	0	31	0	0	0.6	1	1	0.7
4197	Flame of the Arctic	7	6	0	1	18	0	17	0	16	0	0	19	0	0	0.6	1	1	0.7
4198	Soul Spring	7	6	0	1	18	0	17	0	16	0	0	19	0	0	0.6	1	1	0.7
4199	Searing Frost	7	6	0	1	18	0	17	0	16	0	0	19	0	0	0.6	1	1	0.7
4200	Consonance of Souls	7	6	0	1	18	0	17	0	16	0	0	19	0	0	0.6	1	1	0.7
4201	Claw of Demonic Dragon	7	6	0	1	18	0	17	0	16	0	0	19	0	0	0.6	1	1	0.7
4202	Eye of Sacred Dragon	7	6	0	1	18	0	17	0	16	0	0	19	0	0	0.6	1	1	0.7
4203	God of Flame	7	6	0	1	18	0	17	0	16	0	0	19	0	0	0.6	1	1	0.7
4204	Gold of Tears	7	6	0	1	18	0	17	0	16	0	0	19	0	0	0.6	1	1	0.7
4205	God of Fire	7	6	0	1	18	0	17	0	16	0	0	19	0	0	0.6	1	1	0.7
4206	God of Rebuke	7	6	0	1	18	0	17	0	16	0	0	19	0	0	0.6	1	1	0.7
4207	God of Sight	7	6	0	1	18	0	17	0	16	0	0	19	0	0	0.6	1	1	0.7
4208	God of Wrath	7	6	0	1	18	0	17	0	16	0	0	19	0	0	0.6	1	1	0.7
4209	Roar of Turbulence	2	8	0	11	22	0	21	0	20	0	0	23	0	0	0.6	1	1	0.7
4210	Soul Beast	2	8	0	11	22	0	21	0	20	0	0	23	0	0	0.6	1	1	0.7
4211	Comet Magenta	2	8	0	11	22	0	21	0	20	0	0	23	0	0	0.6	1	1	0.7
4212	Ember Scar	3	9	0	12	26	0	25	0	24	0	0	27	0	0	0.6	1	1	0.7
4213	Swift Lightning	3	9	0	12	26	0	25	0	24	0	0	27	0	0	0.6	1	1	0.7
4214	Rattlesnake	5	14	0	15	34	0	33	0	32	0	0	35	0	0	0.6	1	1	0.7
4215	Serpentine Gun of Resonance	5	14	0	15	34	0	33	0	32	0	0	35	0	0	0.6	1	1	0.7
4216	Tooth of Eclipse	4	10	0	13	30	0	29	0	28	0	0	31	0	0	0.6	1	1	0.7
4217	Thunder Tooth	4	10	0	13	30	0	29	0	28	0	0	31	0	0	0.6	1	1	0.7
4218	Essence Dagger	4	10	0	13	30	0	29	0	28	0	0	31	0	0	0.6	1	1	0.7
4274	Light Ice-covered Sword	3	9	0	12	26	0	25	0	24	0	0	27	0	0	0.6	1	1	0.7
4277	Ice-covered Evil Spear	5	14	0	15	34	0	33	0	32	0	0	35	0	0	0.6	1	1	0.7
4278	Ice-covered Enchanted Boww	36	38	0	37	39	0	41	0	40	0	0	42	0	0	0.6	1	1	0.7
4279	Ice-covered Fledgy Staff	7	6	0	1	18	0	17	0	16	0	0	19	0	0	0.6	1	1	0.7
4280	Ice-covered Frosted Staff	7	6	0	1	18	0	17	0	16	0	0	19	0	0	0.6	1	1	0.7
4281	Ice-covered Fury SnowBlade	3	9	0	12	26	0	25	0	24	0	0	27	0	0	0.6	1	1	0.7
4304	Staff of Amercement	7	6	0	1	18	0	17	0	16	0	0	19	0	0	0.6	1	1	0.7
4305	Staff of Sagacious	7	6	0	1	18	0	17	0	16	0	0	19	0	0	0.6	1	1	0.7
4306	Guardian of Nature	7	6	0	1	18	0	17	0	16	0	0	19	0	0	0.6	1	1	0.7
4307	Holy Guidance	7	6	0	1	18	0	17	0	16	0	0	19	0	0	0.6	1	1	0.7
5276	Foldable Chair	2	8	0	11	22	0	21	0	20	0	0	23	0	0	0.6	1	1	0.7
5278	Branch of Defecate	106	106	106	106	106	106	106	106	106	106	106	106	106	106	0.6	1	1	0.7
5280	Soup Spoon	4	10	0	13	30	0	29	0	28	0	0	31	0	0	0.6	1	1	0.7
5281	Pseudo Air Cannon	5	14	0	15	34	0	33	0	32	0	0	35	0	0	0.6	1	1	0.7
5282	Oriental Mystic Chopsticks	3	9	0	12	26	0	25	0	24	0	0	27	0	0	0.7	1.1	1	0.7
5283	Barborosa's Knife	4	10	0	13	30	0	29	0	28	0	0	31	0	0	0.6	1	1	0.7
5284	Barborosa's Fork	4	10	0	13	30	0	29	0	28	0	0	31	0	0	0.6	1	1	0.7
5285	Matchstick Granny's Pan	7	6	0	1	18	0	17	0	16	0	0	19	0	0	0.6	1	1	0.7
5449	Beef Tendon Bidirectional Tome	3	9	0	12	26	0	25	0	24	0	0	27	0	0	0.6	1	1	0.7
5450	Deluxe Binding Encyclopaedia	2	8	0	11	22	0	21	0	20	0	0	23	0	0	0.6	1	1	0.7
5451	Snake-heart Magic Pen	7	6	0	1	18	0	17	0	16	0	0	19	0	0	0.6	1	1	0.7
5452	Sharp Dividers	7	6	0	1	18	0	17	0	16	0	0	19	0	0	0.6	1	1	0.7
5453	Jeansui Accurate Ruler	4	10	0	13	30	0	29	0	28	0	0	31	0	0	0.6	1	1	0.7
5454	Jeansui Long Ruler	4	10	0	13	30	0	29	0	28	0	0	31	0	0	0.6	1	1	0.7
5455	Jeansui Triangular Ruler	4	10	0	13	30	0	29	0	28	0	0	31	0	0	0.6	1	1	0.7
5990	Aurora Blade	3	9	0	12	26	0	25	0	24	0	0	27	0	0	0.7	1.1	1	0.7
7024	Pirate's Hook	4	10	0	13	30	0	29	0	28	0	0	31	0	0	0.6	1	1	0.7
7025	Light Saber	3	9	0	12	26	0	25	0	24	0	0	27	0	0	0.6	1	1	0.7
7026	Paper Strips	4	10	0	13	30	0	29	0	28	0	0	31	0	0	0.6	1	1	0.7
7027	Dagger	4	10	0	13	30	0	29	0	28	0	0	31	0	0	0.6	1	1	0.7
7028	Sword	4	10	0	13	30	0	29	0	28	0	0	31	0	0	0.6	1	1	0.7
7029	Broken Bottle	4	10	0	13	30	0	29	0	28	0	0	31	0	0	0.6	1	1	0.7
7030	Bamboo	3	9	0	12	26	0	25	0	24	0	0	27	0	0	0.6	1	1	0.7
7031	Baseball Bat	3	9	0	12	26	0	25	0	24	0	0	27	0	0	0.6	1	1	0.7
7032	Chainsaw	2	8	0	11	22	0	21	0	20	0	0	23	0	0	0.6	1	1	0.7
7033	Pole	2	8	0	11	22	0	21	0	20	0	0	23	0	0	0.6	1	1	0.7
7034	Light Pole	2	8	0	11	22	0	21	0	20	0	0	23	0	0	0.6	1	1	0.7
7035	Zampaktou	2	8	0	11	22	0	21	0	20	0	0	23	0	0	0.6	1	1	0.7
7036	Rum Barrel	2	8	0	11	22	0	21	0	20	0	0	23	0	0	0.6	1	1	0.7
7037	Banana	5	14	0	15	34	0	33	0	32	0	0	35	0	0	0.6	1	1	0.7
7038	Super Soaker	5	14	0	15	34	0	33	0	32	0	0	35	0	0	0.6	1	1	0.7
7039	Water Pistol	5	14	0	15	34	0	33	0	32	0	0	35	0	0	0.6	1	1	0.7
7040	Bazooka	5	14	0	15	34	0	33	0	32	0	0	35	0	0	0.6	1	1	0.7
7041	Salted Sword Fish	5	14	0	15	34	0	33	0	32	0	0	35	0	0	0.6	1	1	0.7
7042	Lightning Gun	5	14	0	15	34	0	33	0	32	0	0	35	0	0	0.6	1	1	0.7
7043	Shotgun	5	14	0	15	34	0	33	0	32	0	0	35	0	0	0.6	1	1	0.7
7044	Laser Gun	5	14	0	15	34	0	33	0	32	0	0	35	0	0	0.6	1	1	0.7
7045	Fishing Pole	7	6	0	1	18	0	17	0	16	0	0	19	0	0	0.6	1	1	0.7
7046	Big Lollipop	7	6	0	1	18	0	17	0	16	0	0	19	0	0	0.6	1	1	0.7
7047	Flag	7	6	0	1	18	0	17	0	16	0	0	19	0	0	0.6	1	1	0.7
7048	Shepherd's Stick	7	6	0	1	18	0	17	0	16	0	0	19	0	0	0.6	1	1	0.7
7049	Fan	7	6	0	1	18	0	17	0	16	0	0	19	0	0	0.6	1	1	0.7
8895	Salted Fish Broadsword	2	8	0	11	22	0	21	0	20	0	0	23	0	0	0.6	1	1	0.7
8896	Swordfish Blade	3	9	0	12	26	0	25	0	24	0	0	27	0	0	0.6	1	1	0.7
8897	Squidy Staff	7	6	0	1	18	0	17	0	16	0	0	19	0	0	0.6	1	1	0.7
8898	Leviathan Bow	36	38	0	37	39	0	41	0	40	0	0	42	0	0	0.6	1	1	0.7
8899	Crab Claw Bazooka	5	14	0	15	34	0	33	0	32	0	0	35	0	0	0.6	1	1	0.7
8900	Starfish Dagger	4	10	0	13	30	0	29	0	28	0	0	31	0	0	0.6	1	1	0.7